{
  "union" : {
    "left" : { 
      "subtract" : { "left" : { "nil" : null }, "right" : { "all" : null } } 
    },
    "right" : {
      "intersection" : {
        "left" : { "nil" : null },
        "right" : { "complement" : { "nil" : null } }
      }
    }
  }
}