{"vars": [
  "t.start",
  "t.cancel",
  "t.timeout",
  "ledA.on", "ledA.off",
  "ledB.on", "ledB.off"
],
"exp":
  {"always":
    {"implies": ["ledA.on", {"next":
      {"until": [
        {"and": [{"not": "ledA.on"}, {"not": "ledA.off"}]}, "ledA.off"]
      }}]
    }
  }
}
